vcd/AME_Architecture_syn.vcd
$date
	Tue Jun 21 22:49:49 2022
$end
$version
	QuestaSim Version 2020.4
$end
$timescale
	1ns
$end

$scope module tb_ame_architecture_netlist $end

$scope module uut $end
$var wire 1 ! START $end
$var wire 1 " CU_h [6] $end
$var wire 1 # CU_h [5] $end
$var wire 1 $ CU_h [4] $end
$var wire 1 % CU_h [3] $end
$var wire 1 & CU_h [2] $end
$var wire 1 ' CU_h [1] $end
$var wire 1 ( CU_h [0] $end
$var wire 1 ) CU_w [6] $end
$var wire 1 * CU_w [5] $end
$var wire 1 + CU_w [4] $end
$var wire 1 , CU_w [3] $end
$var wire 1 - CU_w [2] $end
$var wire 1 . CU_w [1] $end
$var wire 1 / CU_w [0] $end
$var wire 1 0 clk $end
$var wire 1 1 RST $end
$var wire 1 2 cREADY $end
$var wire 1 3 VALID $end
$var wire 1 4 sixPar $end
$var wire 1 5 eIN_SEL $end
$var wire 1 6 RADDR_RefCu_x [12] $end
$var wire 1 7 RADDR_RefCu_x [11] $end
$var wire 1 8 RADDR_RefCu_x [10] $end
$var wire 1 9 RADDR_RefCu_x [9] $end
$var wire 1 : RADDR_RefCu_x [8] $end
$var wire 1 ; RADDR_RefCu_x [7] $end
$var wire 1 < RADDR_RefCu_x [6] $end
$var wire 1 = RADDR_RefCu_x [5] $end
$var wire 1 > RADDR_RefCu_x [4] $end
$var wire 1 ? RADDR_RefCu_x [3] $end
$var wire 1 @ RADDR_RefCu_x [2] $end
$var wire 1 A RADDR_RefCu_x [1] $end
$var wire 1 B RADDR_RefCu_x [0] $end
$var wire 1 C RADDR_RefCu_y [12] $end
$var wire 1 D RADDR_RefCu_y [11] $end
$var wire 1 E RADDR_RefCu_y [10] $end
$var wire 1 F RADDR_RefCu_y [9] $end
$var wire 1 G RADDR_RefCu_y [8] $end
$var wire 1 H RADDR_RefCu_y [7] $end
$var wire 1 I RADDR_RefCu_y [6] $end
$var wire 1 J RADDR_RefCu_y [5] $end
$var wire 1 K RADDR_RefCu_y [4] $end
$var wire 1 L RADDR_RefCu_y [3] $end
$var wire 1 M RADDR_RefCu_y [2] $end
$var wire 1 N RADDR_RefCu_y [1] $end
$var wire 1 O RADDR_RefCu_y [0] $end
$var wire 1 P RADDR_CurCu_x [5] $end
$var wire 1 Q RADDR_CurCu_x [4] $end
$var wire 1 R RADDR_CurCu_x [3] $end
$var wire 1 S RADDR_CurCu_x [2] $end
$var wire 1 T RADDR_CurCu_x [1] $end
$var wire 1 U RADDR_CurCu_x [0] $end
$var wire 1 V RADDR_CurCu_y [5] $end
$var wire 1 W RADDR_CurCu_y [4] $end
$var wire 1 X RADDR_CurCu_y [3] $end
$var wire 1 Y RADDR_CurCu_y [2] $end
$var wire 1 Z RADDR_CurCu_y [1] $end
$var wire 1 [ RADDR_CurCu_y [0] $end
$var wire 1 \ MEM_RE $end
$var wire 1 ] eREADY $end
$var wire 1 ^ eDONE $end
$var wire 1 _ cComp_EN $end
$var wire 1 ` cDONE $end
$var wire 1 a eComp_EN $end
$var wire 1 b CurSAD [17] $end
$var wire 1 c CurSAD [16] $end
$var wire 1 d CurSAD [15] $end
$var wire 1 e CurSAD [14] $end
$var wire 1 f CurSAD [13] $end
$var wire 1 g CurSAD [12] $end
$var wire 1 h CurSAD [11] $end
$var wire 1 i CurSAD [10] $end
$var wire 1 j CurSAD [9] $end
$var wire 1 k CurSAD [8] $end
$var wire 1 l CurSAD [7] $end
$var wire 1 m CurSAD [6] $end
$var wire 1 n CurSAD [5] $end
$var wire 1 o CurSAD [4] $end
$var wire 1 p CurSAD [3] $end
$var wire 1 q CurSAD [2] $end
$var wire 1 r CurSAD [1] $end
$var wire 1 s CurSAD [0] $end
$var wire 1 t D_Cur [27] $end
$var wire 1 u D_Cur [26] $end
$var wire 1 v D_Cur [25] $end
$var wire 1 w D_Cur [24] $end
$var wire 1 x D_Cur [23] $end
$var wire 1 y D_Cur [22] $end
$var wire 1 z D_Cur [21] $end
$var wire 1 { D_Cur [20] $end
$var wire 1 | D_Cur [19] $end
$var wire 1 } D_Cur [18] $end
$var wire 1 ~ D_Cur [17] $end
$var wire 1 !! D_Cur [16] $end
$var wire 1 "! D_Cur [15] $end
$var wire 1 #! D_Cur [14] $end
$var wire 1 $! D_Cur [13] $end
$var wire 1 %! D_Cur [12] $end
$var wire 1 &! D_Cur [11] $end
$var wire 1 '! D_Cur [10] $end
$var wire 1 (! D_Cur [9] $end
$var wire 1 )! D_Cur [8] $end
$var wire 1 *! D_Cur [7] $end
$var wire 1 +! D_Cur [6] $end
$var wire 1 ,! D_Cur [5] $end
$var wire 1 -! D_Cur [4] $end
$var wire 1 .! D_Cur [3] $end
$var wire 1 /! D_Cur [2] $end
$var wire 1 0! D_Cur [1] $end
$var wire 1 1! D_Cur [0] $end
$var wire 1 2! cMV0_in_int [21] $end
$var wire 1 3! cMV0_in_int [20] $end
$var wire 1 4! cMV0_in_int [19] $end
$var wire 1 5! cMV0_in_int [18] $end
$var wire 1 6! cMV0_in_int [17] $end
$var wire 1 7! cMV0_in_int [16] $end
$var wire 1 8! cMV0_in_int [15] $end
$var wire 1 9! cMV0_in_int [14] $end
$var wire 1 :! cMV0_in_int [13] $end
$var wire 1 ;! cMV0_in_int [12] $end
$var wire 1 <! cMV0_in_int [11] $end
$var wire 1 =! cMV0_in_int [10] $end
$var wire 1 >! cMV0_in_int [9] $end
$var wire 1 ?! cMV0_in_int [8] $end
$var wire 1 @! cMV0_in_int [7] $end
$var wire 1 A! cMV0_in_int [6] $end
$var wire 1 B! cMV0_in_int [5] $end
$var wire 1 C! cMV0_in_int [4] $end
$var wire 1 D! cMV0_in_int [3] $end
$var wire 1 E! cMV0_in_int [2] $end
$var wire 1 F! cMV0_in_int [1] $end
$var wire 1 G! cMV0_in_int [0] $end
$var wire 1 H! cMV1_in_int [21] $end
$var wire 1 I! cMV1_in_int [20] $end
$var wire 1 J! cMV1_in_int [19] $end
$var wire 1 K! cMV1_in_int [18] $end
$var wire 1 L! cMV1_in_int [17] $end
$var wire 1 M! cMV1_in_int [16] $end
$var wire 1 N! cMV1_in_int [15] $end
$var wire 1 O! cMV1_in_int [14] $end
$var wire 1 P! cMV1_in_int [13] $end
$var wire 1 Q! cMV1_in_int [12] $end
$var wire 1 R! cMV1_in_int [11] $end
$var wire 1 S! cMV1_in_int [10] $end
$var wire 1 T! cMV1_in_int [9] $end
$var wire 1 U! cMV1_in_int [8] $end
$var wire 1 V! cMV1_in_int [7] $end
$var wire 1 W! cMV1_in_int [6] $end
$var wire 1 X! cMV1_in_int [5] $end
$var wire 1 Y! cMV1_in_int [4] $end
$var wire 1 Z! cMV1_in_int [3] $end
$var wire 1 [! cMV1_in_int [2] $end
$var wire 1 \! cMV1_in_int [1] $end
$var wire 1 ]! cMV1_in_int [0] $end
$var wire 1 ^! cMV2_in_int [21] $end
$var wire 1 _! cMV2_in_int [20] $end
$var wire 1 `! cMV2_in_int [19] $end
$var wire 1 a! cMV2_in_int [18] $end
$var wire 1 b! cMV2_in_int [17] $end
$var wire 1 c! cMV2_in_int [16] $end
$var wire 1 d! cMV2_in_int [15] $end
$var wire 1 e! cMV2_in_int [14] $end
$var wire 1 f! cMV2_in_int [13] $end
$var wire 1 g! cMV2_in_int [12] $end
$var wire 1 h! cMV2_in_int [11] $end
$var wire 1 i! cMV2_in_int [10] $end
$var wire 1 j! cMV2_in_int [9] $end
$var wire 1 k! cMV2_in_int [8] $end
$var wire 1 l! cMV2_in_int [7] $end
$var wire 1 m! cMV2_in_int [6] $end
$var wire 1 n! cMV2_in_int [5] $end
$var wire 1 o! cMV2_in_int [4] $end
$var wire 1 p! cMV2_in_int [3] $end
$var wire 1 q! cMV2_in_int [2] $end
$var wire 1 r! cMV2_in_int [1] $end
$var wire 1 s! cMV2_in_int [0] $end
$var wire 1 t! eMV0_in_int [21] $end
$var wire 1 u! eMV0_in_int [20] $end
$var wire 1 v! eMV0_in_int [19] $end
$var wire 1 w! eMV0_in_int [18] $end
$var wire 1 x! eMV0_in_int [17] $end
$var wire 1 y! eMV0_in_int [16] $end
$var wire 1 z! eMV0_in_int [15] $end
$var wire 1 {! eMV0_in_int [14] $end
$var wire 1 |! eMV0_in_int [13] $end
$var wire 1 }! eMV0_in_int [12] $end
$var wire 1 ~! eMV0_in_int [11] $end
$var wire 1 !" eMV0_in_int [10] $end
$var wire 1 "" eMV0_in_int [9] $end
$var wire 1 #" eMV0_in_int [8] $end
$var wire 1 $" eMV0_in_int [7] $end
$var wire 1 %" eMV0_in_int [6] $end
$var wire 1 &" eMV0_in_int [5] $end
$var wire 1 '" eMV0_in_int [4] $end
$var wire 1 (" eMV0_in_int [3] $end
$var wire 1 )" eMV0_in_int [2] $end
$var wire 1 *" eMV0_in_int [1] $end
$var wire 1 +" eMV0_in_int [0] $end
$var wire 1 ," eMV1_in_int [21] $end
$var wire 1 -" eMV1_in_int [20] $end
$var wire 1 ." eMV1_in_int [19] $end
$var wire 1 /" eMV1_in_int [18] $end
$var wire 1 0" eMV1_in_int [17] $end
$var wire 1 1" eMV1_in_int [16] $end
$var wire 1 2" eMV1_in_int [15] $end
$var wire 1 3" eMV1_in_int [14] $end
$var wire 1 4" eMV1_in_int [13] $end
$var wire 1 5" eMV1_in_int [12] $end
$var wire 1 6" eMV1_in_int [11] $end
$var wire 1 7" eMV1_in_int [10] $end
$var wire 1 8" eMV1_in_int [9] $end
$var wire 1 9" eMV1_in_int [8] $end
$var wire 1 :" eMV1_in_int [7] $end
$var wire 1 ;" eMV1_in_int [6] $end
$var wire 1 <" eMV1_in_int [5] $end
$var wire 1 =" eMV1_in_int [4] $end
$var wire 1 >" eMV1_in_int [3] $end
$var wire 1 ?" eMV1_in_int [2] $end
$var wire 1 @" eMV1_in_int [1] $end
$var wire 1 A" eMV1_in_int [0] $end
$var wire 1 B" eMV2_in_int [21] $end
$var wire 1 C" eMV2_in_int [20] $end
$var wire 1 D" eMV2_in_int [19] $end
$var wire 1 E" eMV2_in_int [18] $end
$var wire 1 F" eMV2_in_int [17] $end
$var wire 1 G" eMV2_in_int [16] $end
$var wire 1 H" eMV2_in_int [15] $end
$var wire 1 I" eMV2_in_int [14] $end
$var wire 1 J" eMV2_in_int [13] $end
$var wire 1 K" eMV2_in_int [12] $end
$var wire 1 L" eMV2_in_int [11] $end
$var wire 1 M" eMV2_in_int [10] $end
$var wire 1 N" eMV2_in_int [9] $end
$var wire 1 O" eMV2_in_int [8] $end
$var wire 1 P" eMV2_in_int [7] $end
$var wire 1 Q" eMV2_in_int [6] $end
$var wire 1 R" eMV2_in_int [5] $end
$var wire 1 S" eMV2_in_int [4] $end
$var wire 1 T" eMV2_in_int [3] $end
$var wire 1 U" eMV2_in_int [2] $end
$var wire 1 V" eMV2_in_int [1] $end
$var wire 1 W" eMV2_in_int [0] $end
$var wire 1 X" RefPel_int [31] $end
$var wire 1 Y" RefPel_int [30] $end
$var wire 1 Z" RefPel_int [29] $end
$var wire 1 [" RefPel_int [28] $end
$var wire 1 \" RefPel_int [27] $end
$var wire 1 ]" RefPel_int [26] $end
$var wire 1 ^" RefPel_int [25] $end
$var wire 1 _" RefPel_int [24] $end
$var wire 1 `" RefPel_int [23] $end
$var wire 1 a" RefPel_int [22] $end
$var wire 1 b" RefPel_int [21] $end
$var wire 1 c" RefPel_int [20] $end
$var wire 1 d" RefPel_int [19] $end
$var wire 1 e" RefPel_int [18] $end
$var wire 1 f" RefPel_int [17] $end
$var wire 1 g" RefPel_int [16] $end
$var wire 1 h" RefPel_int [15] $end
$var wire 1 i" RefPel_int [14] $end
$var wire 1 j" RefPel_int [13] $end
$var wire 1 k" RefPel_int [12] $end
$var wire 1 l" RefPel_int [11] $end
$var wire 1 m" RefPel_int [10] $end
$var wire 1 n" RefPel_int [9] $end
$var wire 1 o" RefPel_int [8] $end
$var wire 1 p" RefPel_int [7] $end
$var wire 1 q" RefPel_int [6] $end
$var wire 1 r" RefPel_int [5] $end
$var wire 1 s" RefPel_int [4] $end
$var wire 1 t" RefPel_int [3] $end
$var wire 1 u" RefPel_int [2] $end
$var wire 1 v" RefPel_int [1] $end
$var wire 1 w" RefPel_int [0] $end
$var wire 1 x" CurPel_int [31] $end
$var wire 1 y" CurPel_int [30] $end
$var wire 1 z" CurPel_int [29] $end
$var wire 1 {" CurPel_int [28] $end
$var wire 1 |" CurPel_int [27] $end
$var wire 1 }" CurPel_int [26] $end
$var wire 1 ~" CurPel_int [25] $end
$var wire 1 !# CurPel_int [24] $end
$var wire 1 "# CurPel_int [23] $end
$var wire 1 ## CurPel_int [22] $end
$var wire 1 $# CurPel_int [21] $end
$var wire 1 %# CurPel_int [20] $end
$var wire 1 &# CurPel_int [19] $end
$var wire 1 '# CurPel_int [18] $end
$var wire 1 (# CurPel_int [17] $end
$var wire 1 )# CurPel_int [16] $end
$var wire 1 *# CurPel_int [15] $end
$var wire 1 +# CurPel_int [14] $end
$var wire 1 ,# CurPel_int [13] $end
$var wire 1 -# CurPel_int [12] $end
$var wire 1 .# CurPel_int [11] $end
$var wire 1 /# CurPel_int [10] $end
$var wire 1 0# CurPel_int [9] $end
$var wire 1 1# CurPel_int [8] $end
$var wire 1 2# CurPel_int [7] $end
$var wire 1 3# CurPel_int [6] $end
$var wire 1 4# CurPel_int [5] $end
$var wire 1 5# CurPel_int [4] $end
$var wire 1 6# CurPel_int [3] $end
$var wire 1 7# CurPel_int [2] $end
$var wire 1 8# CurPel_int [1] $end
$var wire 1 9# CurPel_int [0] $end
$var wire 1 :# MV0_out_int [21] $end
$var wire 1 ;# MV0_out_int [20] $end
$var wire 1 <# MV0_out_int [19] $end
$var wire 1 =# MV0_out_int [18] $end
$var wire 1 ># MV0_out_int [17] $end
$var wire 1 ?# MV0_out_int [16] $end
$var wire 1 @# MV0_out_int [15] $end
$var wire 1 A# MV0_out_int [14] $end
$var wire 1 B# MV0_out_int [13] $end
$var wire 1 C# MV0_out_int [12] $end
$var wire 1 D# MV0_out_int [11] $end
$var wire 1 E# MV0_out_int [10] $end
$var wire 1 F# MV0_out_int [9] $end
$var wire 1 G# MV0_out_int [8] $end
$var wire 1 H# MV0_out_int [7] $end
$var wire 1 I# MV0_out_int [6] $end
$var wire 1 J# MV0_out_int [5] $end
$var wire 1 K# MV0_out_int [4] $end
$var wire 1 L# MV0_out_int [3] $end
$var wire 1 M# MV0_out_int [2] $end
$var wire 1 N# MV0_out_int [1] $end
$var wire 1 O# MV0_out_int [0] $end
$var wire 1 P# MV1_out_int [21] $end
$var wire 1 Q# MV1_out_int [20] $end
$var wire 1 R# MV1_out_int [19] $end
$var wire 1 S# MV1_out_int [18] $end
$var wire 1 T# MV1_out_int [17] $end
$var wire 1 U# MV1_out_int [16] $end
$var wire 1 V# MV1_out_int [15] $end
$var wire 1 W# MV1_out_int [14] $end
$var wire 1 X# MV1_out_int [13] $end
$var wire 1 Y# MV1_out_int [12] $end
$var wire 1 Z# MV1_out_int [11] $end
$var wire 1 [# MV1_out_int [10] $end
$var wire 1 \# MV1_out_int [9] $end
$var wire 1 ]# MV1_out_int [8] $end
$var wire 1 ^# MV1_out_int [7] $end
$var wire 1 _# MV1_out_int [6] $end
$var wire 1 `# MV1_out_int [5] $end
$var wire 1 a# MV1_out_int [4] $end
$var wire 1 b# MV1_out_int [3] $end
$var wire 1 c# MV1_out_int [2] $end
$var wire 1 d# MV1_out_int [1] $end
$var wire 1 e# MV1_out_int [0] $end
$var wire 1 f# MV2_out_int [21] $end
$var wire 1 g# MV2_out_int [20] $end
$var wire 1 h# MV2_out_int [19] $end
$var wire 1 i# MV2_out_int [18] $end
$var wire 1 j# MV2_out_int [17] $end
$var wire 1 k# MV2_out_int [16] $end
$var wire 1 l# MV2_out_int [15] $end
$var wire 1 m# MV2_out_int [14] $end
$var wire 1 n# MV2_out_int [13] $end
$var wire 1 o# MV2_out_int [12] $end
$var wire 1 p# MV2_out_int [11] $end
$var wire 1 q# MV2_out_int [10] $end
$var wire 1 r# MV2_out_int [9] $end
$var wire 1 s# MV2_out_int [8] $end
$var wire 1 t# MV2_out_int [7] $end
$var wire 1 u# MV2_out_int [6] $end
$var wire 1 v# MV2_out_int [5] $end
$var wire 1 w# MV2_out_int [4] $end
$var wire 1 x# MV2_out_int [3] $end
$var wire 1 y# MV2_out_int [2] $end
$var wire 1 z# MV2_out_int [1] $end
$var wire 1 {# MV2_out_int [0] $end
$var wire 1 |# MVP0_int [21] $end
$var wire 1 }# MVP0_int [20] $end
$var wire 1 ~# MVP0_int [19] $end
$var wire 1 !$ MVP0_int [18] $end
$var wire 1 "$ MVP0_int [17] $end
$var wire 1 #$ MVP0_int [16] $end
$var wire 1 $$ MVP0_int [15] $end
$var wire 1 %$ MVP0_int [14] $end
$var wire 1 &$ MVP0_int [13] $end
$var wire 1 '$ MVP0_int [12] $end
$var wire 1 ($ MVP0_int [11] $end
$var wire 1 )$ MVP0_int [10] $end
$var wire 1 *$ MVP0_int [9] $end
$var wire 1 +$ MVP0_int [8] $end
$var wire 1 ,$ MVP0_int [7] $end
$var wire 1 -$ MVP0_int [6] $end
$var wire 1 .$ MVP0_int [5] $end
$var wire 1 /$ MVP0_int [4] $end
$var wire 1 0$ MVP0_int [3] $end
$var wire 1 1$ MVP0_int [2] $end
$var wire 1 2$ MVP0_int [1] $end
$var wire 1 3$ MVP0_int [0] $end
$var wire 1 4$ MVP1_int [21] $end
$var wire 1 5$ MVP1_int [20] $end
$var wire 1 6$ MVP1_int [19] $end
$var wire 1 7$ MVP1_int [18] $end
$var wire 1 8$ MVP1_int [17] $end
$var wire 1 9$ MVP1_int [16] $end
$var wire 1 :$ MVP1_int [15] $end
$var wire 1 ;$ MVP1_int [14] $end
$var wire 1 <$ MVP1_int [13] $end
$var wire 1 =$ MVP1_int [12] $end
$var wire 1 >$ MVP1_int [11] $end
$var wire 1 ?$ MVP1_int [10] $end
$var wire 1 @$ MVP1_int [9] $end
$var wire 1 A$ MVP1_int [8] $end
$var wire 1 B$ MVP1_int [7] $end
$var wire 1 C$ MVP1_int [6] $end
$var wire 1 D$ MVP1_int [5] $end
$var wire 1 E$ MVP1_int [4] $end
$var wire 1 F$ MVP1_int [3] $end
$var wire 1 G$ MVP1_int [2] $end
$var wire 1 H$ MVP1_int [1] $end
$var wire 1 I$ MVP1_int [0] $end
$var wire 1 J$ MVP2_int [21] $end
$var wire 1 K$ MVP2_int [20] $end
$var wire 1 L$ MVP2_int [19] $end
$var wire 1 M$ MVP2_int [18] $end
$var wire 1 N$ MVP2_int [17] $end
$var wire 1 O$ MVP2_int [16] $end
$var wire 1 P$ MVP2_int [15] $end
$var wire 1 Q$ MVP2_int [14] $end
$var wire 1 R$ MVP2_int [13] $end
$var wire 1 S$ MVP2_int [12] $end
$var wire 1 T$ MVP2_int [11] $end
$var wire 1 U$ MVP2_int [10] $end
$var wire 1 V$ MVP2_int [9] $end
$var wire 1 W$ MVP2_int [8] $end
$var wire 1 X$ MVP2_int [7] $end
$var wire 1 Y$ MVP2_int [6] $end
$var wire 1 Z$ MVP2_int [5] $end
$var wire 1 [$ MVP2_int [4] $end
$var wire 1 \$ MVP2_int [3] $end
$var wire 1 ]$ MVP2_int [2] $end
$var wire 1 ^$ MVP2_int [1] $end
$var wire 1 _$ MVP2_int [0] $end
$upscope $end
$upscope $end
$enddefinitions $end
#0
$dumpvars
x4
00
01
0!
x2
03
05
x\
x]
x_
x`
xa
x^
x2!
x3!
x4!
x5!
x6!
x7!
x8!
x9!
x:!
x;!
x<!
x=!
x>!
x?!
x@!
xA!
xB!
xC!
xD!
xE!
xF!
xG!
xH!
xI!
xJ!
xK!
xL!
xM!
xN!
xO!
xP!
xQ!
xR!
xS!
xT!
xU!
xV!
xW!
xX!
xY!
xZ!
x[!
x\!
x]!
x^!
x_!
x`!
xa!
xb!
xc!
xd!
xe!
xf!
xg!
xh!
xi!
xj!
xk!
xl!
xm!
xn!
xo!
xp!
xq!
xr!
xs!
xt!
xu!
xv!
xw!
xx!
xy!
xz!
x{!
x|!
x}!
x~!
x!"
x""
x#"
x$"
x%"
x&"
x'"
x("
x)"
x*"
x+"
x,"
x-"
x."
x/"
x0"
x1"
x2"
x3"
x4"
x5"
x6"
x7"
x8"
x9"
x:"
x;"
x<"
x="
x>"
x?"
x@"
xA"
xB"
xC"
xD"
xE"
xF"
xG"
xH"
xI"
xJ"
xK"
xL"
xM"
xN"
xO"
xP"
xQ"
xR"
xS"
xT"
xU"
xV"
xW"
xX"
xY"
xZ"
x["
x\"
x]"
x^"
x_"
x`"
xa"
xb"
xc"
xd"
xe"
xf"
xg"
xh"
xi"
xj"
xk"
xl"
xm"
xn"
xo"
xp"
xq"
xr"
xs"
xt"
xu"
xv"
xw"
xx"
xy"
xz"
x{"
x|"
x}"
x~"
x!#
x"#
x##
x$#
x%#
x&#
x'#
x(#
x)#
x*#
x+#
x,#
x-#
x.#
x/#
x0#
x1#
x2#
x3#
x4#
x5#
x6#
x7#
x8#
x9#
0"
0#
0$
0%
0&
0'
0(
0)
0*
0+
0,
0-
0.
0/
x6
x7
x8
x9
x:
x;
x<
x=
x>
x?
x@
xA
xB
xC
xD
xE
xF
xG
xH
xI
xJ
xK
xL
xM
xN
xO
xP
xQ
xR
xS
xT
xU
xV
xW
xX
xY
xZ
x[
x:#
x;#
x<#
x=#
x>#
x?#
x@#
xA#
xB#
xC#
xD#
xE#
xF#
xG#
xH#
xI#
xJ#
xK#
xL#
xM#
xN#
xO#
xP#
xQ#
xR#
xS#
xT#
xU#
xV#
xW#
xX#
xY#
xZ#
x[#
x\#
x]#
x^#
x_#
x`#
xa#
xb#
xc#
xd#
xe#
xf#
xg#
xh#
xi#
xj#
xk#
xl#
xm#
xn#
xo#
xp#
xq#
xr#
xs#
xt#
xu#
xv#
xw#
xx#
xy#
xz#
x{#
x|#
x}#
x~#
x!$
x"$
x#$
x$$
x%$
x&$
x'$
x($
x)$
x*$
x+$
x,$
x-$
x.$
x/$
x0$
x1$
x2$
x3$
x4$
x5$
x6$
x7$
x8$
x9$
x:$
x;$
x<$
x=$
x>$
x?$
x@$
xA$
xB$
xC$
xD$
xE$
xF$
xG$
xH$
xI$
xJ$
xK$
xL$
xM$
xN$
xO$
xP$
xQ$
xR$
xS$
xT$
xU$
xV$
xW$
xX$
xY$
xZ$
x[$
x\$
x]$
x^$
x_$
xb
xc
xd
xe
xf
xg
xh
xi
xj
xk
xl
xm
xn
xo
xp
xq
xr
xs
xt
xu
xv
xw
xx
xy
xz
x{
x|
x}
x~
x!!
x"!
x#!
x$!
x%!
x&!
x'!
x(!
x)!
x*!
x+!
x,!
x-!
x.!
x/!
x0!
x1!
$end
#6
10
#12
00
11
0]
0w"
1v"
1u"
1t"
0s"
0r"
0q"
1p"
1o"
1n"
1m"
1l"
0k"
0j"
0i"
1h"
0g"
1f"
1e"
1d"
0c"
0b"
0a"
1`"
1_"
1^"
1]"
1\"
0["
0Z"
0Y"
1X"
09#
18#
07#
06#
15#
04#
03#
12#
11#
10#
1/#
0.#
0-#
0,#
0+#
1*#
1)#
0(#
1'#
0&#
0%#
0$#
0##
1"#
0!#
1~"
0}"
0|"
1{"
0z"
0y"
1x"
0a
0\
0`
02
0^
0_
0b
0c
0d
0e
0f
0g
0h
0i
0j
0k
0l
0m
0n
0o
0p
0q
0r
0s
06
07
08
09
0:
0;
0<
0=
0>
0?
0@
0A
0B
0[
0Z
0Y
0X
0W
0V
0U
0T
0S
0R
0Q
0P
0O
0N
0M
0L
0K
0J
0I
0H
0G
0F
0E
0D
0C
0[#
0P#
0Z#
0O#
0D#
0N#
0M#
0K#
0J#
0H#
0G#
0L#
0I#
0F#
0E#
0C#
0B#
0A#
0@#
0?#
0>#
0=#
0<#
0;#
0:#
0R#
0d#
0a#
0^#
0\#
0Y#
0X#
0W#
0V#
0U#
0T#
0S#
0Q#
0c#
0b#
0`#
0_#
0]#
0g#
0m#
0k#
0j#
0i#
0h#
0f#
0{#
0z#
0y#
0x#
0w#
0v#
0u#
0t#
0s#
0r#
0q#
0p#
0o#
0n#
0l#
0e#
0I$
0H$
0G$
0F$
0E$
0D$
0C$
0B$
0A$
0@$
0?$
03$
02$
01$
00$
0/$
0.$
0-$
0,$
0+$
0*$
0)$
0_$
0^$
0]$
0\$
0[$
0Z$
0Y$
0X$
0W$
0V$
0U$
0T$
0S$
0R$
0Q$
0P$
0O$
0N$
0M$
0L$
0K$
0J$
0>$
0=$
0<$
0;$
0:$
09$
08$
07$
06$
05$
04$
0($
0'$
0&$
0%$
0$$
0#$
0"$
0!$
0~#
0}#
0|#
0t
0u
0v
0w
0x
0y
0z
0{
0|
0}
0~
0!!
0"!
0#!
0$!
0%!
0&!
0'!
0(!
0)!
0*!
0+!
0,!
0-!
0.!
0/!
00!
01!
#18
10
#24
00
01
#30
10
1]
12
#36
00
1!
13
04
1#
1+
0s!
0r!
0q!
0p!
1o!
1n!
0m!
1l!
1k!
1j!
1i!
0h!
0g!
0f!
0e!
1d!
0c!
1b!
1a!
1`!
1_!
1^!
0]!
0\!
0[!
1Z!
0Y!
1X!
0W!
1V!
1U!
1T!
1S!
0R!
0Q!
0P!
0O!
0N!
0M!
1L!
1K!
1J!
1I!
1H!
0G!
0F!
0E!
0D!
1C!
1B!
0A!
1@!
1?!
1>!
1=!
0<!
0;!
0:!
09!
18!
07!
16!
15!
14!
13!
12!
0A"
0@"
0?"
0>"
1="
1<"
0;"
1:"
19"
18"
17"
06"
05"
04"
03"
12"
01"
10"
1/"
1."
1-"
1,"
0+"
0*"
0)"
0("
1'"
1&"
0%"
1$"
1#"
1""
1!"
0~!
0}!
0|!
0{!
1z!
0y!
1x!
1w!
1v!
1u!
1t!
#42
10
0]
#48
00
1r!
1q!
1p!
1g!
1f!
#54
10
1]
02
#60
00
0r!
0q!
0p!
0g!
0f!
#66
10
0]
xs
xr
xq
xp
xo
xn
xm
xl
xk
xj
xi
xh
xg
xf
xe
xd
xc
xb
#72
00
1r!
1q!
1p!
1g!
1f!
#78
10
#84
00
03
0!
0r!
0q!
0p!
0g!
0f!
1D!
0C!
08!
#90
10
#96
00
1r!
1q!
1p!
1g!
1f!
#102
10
#108
00
0r!
0q!
0p!
0g!
0f!
#114
10
#120
00
1r!
1q!
1p!
1g!
1f!
#126
10
#132
00
0r!
0q!
0p!
0g!
0f!
#138
10
#144
00
1r!
1q!
1p!
1g!
1f!
#150
10
#156
00
0r!
0q!
0p!
0g!
0f!
#162
10
#168
00
1r!
1q!
1p!
1g!
1f!
#174
10
1'!
1)!
1_
#180
00
#186
10
0'!
1,!
1.!
1(!
#192
00
15
#198
10
1\
1'!
0,!
1U$
1[$
1Z$
1X$
1W$
1V$
1|#
1$$
1"$
1!$
1~#
1}#
14$
18$
17$
16$
15$
1J$
1P$
1N$
1M$
1L$
1K$
1)$
1/$
1.$
1,$
1+$
1*$
1?$
1F$
1D$
1B$
1A$
1@$
0.!
0(!
#204
00
#210
10
0v"
0t"
1q"
0p"
0o"
0m"
0l"
1i"
0h"
0e"
0d"
1a"
0`"
0]"
0\"
1Y"
0X"
19#
08#
17#
05#
13#
02#
00#
1+#
0*#
0)#
1##
0"#
1!#
0{"
1y"
0x"
1,!
0'!
1[
1^$
1]$
1\$
1S$
1R$
1O
1.!
1(!
#216
00
#222
10
1w"
1v"
0u"
1g"
01#
1)#
1(#
0'#
0!#
0,!
0[
1Z
1N
1+!
0O
0.!
0(!
#228
00
#234
10
1o"
0^"
1]"
09#
11#
10#
0/#
0)#
1[
1*!
1O
1.!
1(!
#240
00
#246
10
0w"
0v"
1u"
0n"
1m"
0f"
1e"
0_"
0]"
1\"
19#
18#
07#
01#
1)#
0(#
1R
1S
0Z
1@
1?
1p
0q
0r
0s
0N
0b
0c
0d
0e
0f
0g
0h
0i
0j
0k
0[
0l
0m
1o
0n
0$$
0S$
0R$
0/$
0*!
0^$
0]$
0\$
0O
0.!
0(!
10$
#252
00
#258
10
1v"
0u"
1t"
1s"
1n"
0m"
1l"
1k"
1d"
1c"
1]"
1["
08#
11#
00#
0)#
1(#
1!#
1[
1*!
1O
1.!
1(!
#264
00
#270
10
0o"
0n"
1m"
09#
01#
1)#
0(#
0!#
0~"
1}"
0[
0o
1Z
0p
1r
1q
0*!
1N
0O
0.!
0(!
#276
00
#282
10
1w"
1o"
1_"
1^"
0]"
19#
11#
0)#
1(#
1!#
0}"
1|"
1s
1[
1p
0q
1*!
1O
1.!
1(!
#288
00
#294
10
0w"
0v"
1u"
0_"
0^"
01#
10#
1)#
1'#
0|"
1{"
0R
0S
0s
0[
0Z
0?
0p
0@
1X
1Y
0N
0*!
0O
1L
1M
0.!
0(!
0r
1o
#300
00
#306
10
0s"
1n"
0m"
0k"
0g"
1f"
0e"
0c"
1_"
0["
18#
16#
15#
14#
03#
00#
1/#
1.#
1-#
1,#
0+#
0(#
0'#
1}"
0{"
1[
1p
1*!
1O
1.!
1(!
1r
1q
#312
00
#318
10
1w"
1v"
0t"
0o"
1m"
0l"
1g"
0f"
1e"
0d"
0_"
1]"
0\"
08#
17#
10#
0/#
0.#
0-#
0,#
1+#
1(#
1'#
0}"
1|"
0[
0p
1Z
1s
1N
0O
0o
0r
1l
0_
1`
0`
#324
00
#330
10
0w"
0u"
1o"
0n"
0m"
0g"
0e"
1_"
1^"
1\"
1["
1Z"
0Y"
09#
18#
07#
06#
05#
04#
13#
11#
00#
1.#
0)#
0(#
1&#
1~"
1}"
1[
1p
1O
1n
1m
1r
1`
#336
00
